<svg width="38" height="32" viewBox="0 0 38 32" fill="none" xmlns="http://www.w3.org/2000/svg">
<g clip-path="url(#clip0)">
<path fill-rule="evenodd" clip-rule="evenodd" d="M36.0842 30.5711C36.0842 30.5711 38.45 30.5711 38.45 28.1839C38.45 25.7967 36.0842 18.6352 26.6207 18.6352C17.1572 18.6352 14.7914 25.7967 14.7914 28.1839C14.7914 30.5711 17.1572 30.5711 17.1572 30.5711H36.0842ZM17.2093 28.1839H36.0321C36.0432 28.1826 36.0542 28.181 36.0652 28.1791L36.0842 28.1744C36.0794 27.5441 35.6891 25.7156 34.2861 24.0684C32.9802 22.5239 30.6853 21.0224 26.6207 21.0224C22.5585 21.0224 20.2636 22.5263 18.9553 24.0684C17.5523 25.7156 17.1596 27.5465 17.1572 28.1744C17.1746 28.1777 17.1919 28.1809 17.2093 28.1839ZM26.6207 13.8608C27.8756 13.8608 29.0792 13.3578 29.9665 12.4624C30.8539 11.5671 31.3524 10.3527 31.3524 9.08646C31.3524 7.82023 30.8539 6.60585 29.9665 5.71048C29.0792 4.81512 27.8756 4.31211 26.6207 4.31211C25.3658 4.31211 24.1622 4.81512 23.2749 5.71048C22.3875 6.60585 21.889 7.82023 21.889 9.08646C21.889 10.3527 22.3875 11.5671 23.2749 12.4624C24.1622 13.3578 25.3658 13.8608 26.6207 13.8608ZM33.7183 9.08646C33.7183 10.0269 33.5347 10.9582 33.178 11.8271C32.8213 12.6959 32.2985 13.4854 31.6395 14.1504C30.9804 14.8154 30.198 15.343 29.3368 15.7029C28.4757 16.0628 27.5528 16.248 26.6207 16.248C25.6886 16.248 24.7657 16.0628 23.9046 15.7029C23.0435 15.343 22.261 14.8154 21.6019 14.1504C20.9429 13.4854 20.4201 12.6959 20.0634 11.8271C19.7067 10.9582 19.5231 10.0269 19.5231 9.08646C19.5231 7.18711 20.2709 5.36554 21.6019 4.02249C22.933 2.67944 24.7383 1.92493 26.6207 1.92493C28.5031 1.92493 30.3084 2.67944 31.6395 4.02249C32.9705 5.36554 33.7183 7.18711 33.7183 9.08646ZM17.0058 19.3036C16.0594 19.0029 15.0839 18.8052 14.0958 18.714C13.5406 18.6607 12.9832 18.6344 12.4255 18.6352C2.96206 18.6352 0.596191 25.7967 0.596191 28.1839C0.596191 29.7761 1.38402 30.5711 2.96206 30.5711H12.9365C12.5858 29.8258 12.4109 29.0088 12.4255 28.1839C12.4255 25.7728 13.3174 23.3093 15.0043 21.2515C15.5792 20.5497 16.2488 19.8932 17.0058 19.3036ZM12.2362 21.0224C8.28999 21.0701 6.04951 22.5502 4.76011 24.0684C3.34769 25.7251 2.96206 27.5608 2.96206 28.1839H10.0597C10.0597 25.6893 10.8238 23.2042 12.2362 21.0224ZM4.14499 10.2801C4.14499 8.3807 4.89277 6.55913 6.22383 5.21608C7.55488 3.87303 9.36019 3.11852 11.2426 3.11852C13.125 3.11852 14.9303 3.87303 16.2613 5.21608C17.5924 6.55913 18.3402 8.3807 18.3402 10.2801C18.3402 12.1794 17.5924 14.001 16.2613 15.344C14.9303 16.6871 13.125 17.4416 11.2426 17.4416C9.36019 17.4416 7.55488 16.6871 6.22383 15.344C4.89277 14.001 4.14499 12.1794 4.14499 10.2801ZM11.2426 5.5057C9.98765 5.5057 8.78412 6.00871 7.89675 6.90407C7.00937 7.79944 6.51085 9.01382 6.51085 10.2801C6.51085 11.5463 7.00937 12.7607 7.89675 13.656C8.78412 14.5514 9.98765 15.0544 11.2426 15.0544C12.4975 15.0544 13.7011 14.5514 14.5884 13.656C15.4758 12.7607 15.9743 11.5463 15.9743 10.2801C15.9743 9.01382 15.4758 7.79944 14.5884 6.90407C13.7011 6.00871 12.4975 5.5057 11.2426 5.5057Z" fill="#23A6F0"/>
</g>
<defs>
<clipPath id="clip0">
<rect width="36.8308" height="30.3313" fill="white" transform="translate(0.851929 0.901855)"/>
</clipPath>
</defs>
</svg>
