<svg width="19" height="19" viewBox="0 0 19 19" fill="none" xmlns="http://www.w3.org/2000/svg">
<g clip-path="url(#clip0)">
<path fill-rule="evenodd" clip-rule="evenodd" d="M18.051 9.45303C18.051 4.54968 14.1006 0.574951 9.2281 0.574951C4.35342 0.576054 0.402954 4.54968 0.402954 9.45413C0.402954 13.8844 3.62994 17.5569 7.84731 18.223V12.0194H5.60849V9.45413H7.84951V7.49654C7.84951 5.27206 9.16744 4.04347 11.1824 4.04347C12.1485 4.04347 13.1576 4.21662 13.1576 4.21662V6.40029H12.0448C10.9497 6.40029 10.6078 7.08518 10.6078 7.7877V9.45303H13.0539L12.6635 12.0183H10.6067V18.2219C14.824 17.5558 18.051 13.8832 18.051 9.45303Z" fill="#23A6F0"/>
</g>
<defs>
<clipPath id="clip0">
<rect width="18.4154" height="18.4154" fill="white" transform="translate(0.0192871 0.574951)"/>
</clipPath>
</defs>
</svg>
